^C:\USERS\HOME\SOURCE\REPOS\PLAYERS\DEBUG\ARMOR.OBJ|C:\USERS\HOME\SOURCE\REPOS\PLAYERS\DEBUG\MAIN.OBJ|C:\USERS\HOME\SOURCE\REPOS\PLAYERS\DEBUG\MARY_PLAYER.OBJ
/OUT:"C:\USERS\HOME\SOURCE\REPOS\PLAYERS\DEBUG\PLAYERS.EXE" /INCREMENTAL /ILK:"DEBUG\PLAYERS.ILK" /NOLOGO KERNEL32.LIB USER32.LIB GDI32.LIB WINSPOOL.LIB COMDLG32.LIB ADVAPI32.LIB SHELL32.LIB OLE32.LIB OLEAUT32.LIB UUID.LIB ODBC32.LIB ODBCCP32.LIB /MANIFEST /MANIFESTUAC:"level='asInvoker' uiAccess='false'" /manifest:embed /DEBUG /PDB:"C:\USERS\HOME\SOURCE\REPOS\PLAYERS\DEBUG\PLAYERS.PDB" /SUBSYSTEM:CONSOLE /TLBID:1 /DYNAMICBASE /NXCOMPAT /IMPLIB:"C:\USERS\HOME\SOURCE\REPOS\PLAYERS\DEBUG\PLAYERS.LIB" /MACHINE:X86 DEBUG\ARMOR.OBJ
DEBUG\MAIN.OBJ
DEBUG\MARY_PLAYER.OBJ
