^C:\USERS\HOME\SOURCE\REPOS\PLAYERS\DEBUG\ARMOR.OBJ|C:\USERS\HOME\SOURCE\REPOS\PLAYERS\DEBUG\MAIN.OBJ|C:\USERS\HOME\SOURCE\REPOS\PLAYERS\DEBUG\MARY_PLAYER.OBJ
C:\USERS\HOME\SOURCE\REPOS\PLAYERS\DEBUG\PLAYERS.EXE
C:\USERS\HOME\SOURCE\REPOS\PLAYERS\DEBUG\PLAYERS.ILK
C:\USERS\HOME\SOURCE\REPOS\PLAYERS\DEBUG\PLAYERS.PDB
